C:\POMFramework\DemoFramework\src\test\java\com\practice\Catalog.java
C:\POMFramework\DemoFramework\src\test\java\com\practice\LoginTest.java
C:\POMFramework\DemoFramework\src\test\java\com\practice\AddcartTest.java
C:\POMFramework\DemoFramework\src\test\java\com\practice\CreateanaccountTest.java
